$ANSIBLE_VAULT;1.1;AES256
39616239376135333461666239396664343432646139326330303864343236386163623665333033
3663653362363535313533323839663366643730613765650a653333663534343761316562653466
32306161313366323263643932386566366462313437336361653134626464313933383362323461
3133663336383565310a346539326564343566373635363262353761343735656232613766656564
3739
